% time spent exploring,episodes,mean 100 episode reward,steps
61,100,-200.0,19799
21,200,-200.0,39799
2,300,-197.2,59517
2,400,-182.9,77807
2,500,-172.1,95020
2,600,-139.5,108968
2,700,-178.3,126797
2,800,-181.5,144948
2,900,-155.8,160532
2,1000,-196.6,180197
2,1100,-199.9,200186
2,1200,-191.4,219325
2,1300,-172.6,236583
2,1400,-171.2,253704
2,1500,-185.3,272236
2,1600,-137.4,285972
2,1700,-124.5,298423
2,1800,-144.2,312839
2,1900,-128.7,325710
2,2000,-113.3,337037
2,2100,-137.4,350775
2,2200,-111.8,361955
2,2300,-105.6,372514
2,2400,-108.6,383375
2,2500,-109.1,394286
2,2600,-108.1,405099
2,2700,-118.4,416936
2,2800,-122.5,429185
2,2900,-157.0,444887
2,3000,-115.4,456427
2,3100,-133.6,469790
2,3200,-162.5,486043
